<?xml version="1.0" encoding="UTF-8"?>
<svg width="292px" height="338px" viewBox="0 0 292 338" version="1.1" xmlns="http://www.w3.org/2000/svg" xmlns:xlink="http://www.w3.org/1999/xlink">
    <!-- Generator: Sketch 50.2 (55047) - http://www.bohemiancoding.com/sketch -->
    <title>icon-ed-default</title>
    <desc>Created with Sketch.</desc>
    <defs></defs>
    <g id="Page-1" stroke="none" stroke-width="1" fill="none" fill-rule="evenodd">
        <g id="noun_Elevator_1153148" fill="#000000" fill-rule="nonzero">
            <g id="icon-ed-default">
                <path d="M128.746429,95.0625 L71.4321429,95.0625 C55.2598214,95.0625 42.1428571,108.212813 42.1428571,124.42625 L42.1428571,211.25 C42.1428571,217.0805 46.8523214,221.8125 52.6785714,221.8125 C58.5048214,221.8125 63.2142857,217.0805 63.2142857,211.25 L63.2142857,137.3125 L73.75,137.3125 L73.75,295.75 C73.75,301.5805 78.4594643,306.3125 84.2857143,306.3125 C90.1119643,306.3125 94.8214286,301.5805 94.8214286,295.75 L94.8214286,200.6875 L105.357143,200.6875 L105.357143,295.75 C105.357143,301.5805 110.066607,306.3125 115.892857,306.3125 C121.719107,306.3125 126.428571,301.5805 126.428571,295.75 L126.428571,137.3125 L136.964286,137.3125 L136.964286,211.25 C136.964286,217.0805 141.67375,221.8125 147.5,221.8125 C153.32625,221.8125 158.035714,217.0805 158.035714,211.25 L158.035714,124.42625 C158.035714,108.212813 144.91875,95.0625 128.746429,95.0625 Z" id="Shape"></path>
                <ellipse id="Oval" cx="100.394821" cy="58.9070625" rx="25.7071429" ry="25.7725"></ellipse>
                <path d="M168.571429,0 L31.6071429,0 C14.16,0 0,14.196 0,31.6875 L0,306.301938 C0,323.804 14.16,338 31.6071429,338 L168.571429,338 C186.018571,338 200.178571,323.804 200.178571,306.301938 L200.178571,31.6875 C200.178571,14.196 186.018571,0 168.571429,0 Z M179.107143,306.301938 C179.107143,312.143 174.387143,316.875 168.571429,316.875 L31.6071429,316.875 C25.7914286,316.875 21.0714286,312.143 21.0714286,306.301938 L21.0714286,31.6875 C21.0714286,25.857 25.7914286,21.125 31.6071429,21.125 L168.571429,21.125 C174.387143,21.125 179.107143,25.857 179.107143,31.6875 L179.107143,306.301938 Z" id="Shape"></path>
                <path d="M239.887679,105.625 L252.857143,105.625 L252.857143,126.75 C252.857143,132.5805 257.566607,137.3125 263.392857,137.3125 C269.219107,137.3125 273.928571,132.5805 273.928571,126.75 L273.928571,105.625 L286.898036,105.625 C288.552143,105.625 290.079821,104.727188 290.891071,103.290688 C291.702321,101.854188 291.68125,100.079688 290.827857,98.6643125 L268.471071,61.3153125 C267.406964,59.5196875 265.468393,58.4211875 263.392857,58.4211875 C261.317321,58.4211875 259.37875,59.5196875 258.314643,61.30475 L235.957857,98.65375 C235.104464,100.079688 235.083393,101.854188 235.894643,103.280125 C236.705893,104.706063 238.223036,105.625 239.887679,105.625 Z" id="Shape"></path>
                <path d="M291.059643,234.762125 C290.248393,233.325625 288.720714,232.375 287.066607,232.375 L273.928571,232.375 L273.928571,211.366188 C273.928571,205.525125 269.219107,200.803688 263.392857,200.803688 C257.566607,200.803688 252.857143,205.525125 252.857143,211.366188 L252.857143,232.375 L240.045714,232.375 C238.391607,232.375 236.863929,233.325625 236.052679,234.762125 C235.241429,236.209188 235.2625,238.004813 236.115893,239.420188 L258.472679,276.790313 C259.547321,278.575375 261.475357,279.673875 263.550893,279.673875 C265.626429,279.673875 267.565,278.575375 268.629107,276.790313 L290.985893,239.441313 C291.849821,238.025938 291.870893,236.188063 291.059643,234.762125 Z" id="Shape"></path>
            </g>
        </g>
    </g>
</svg>