<?xml version="1.0" encoding="UTF-8"?>
<svg width="108px" height="128px" viewBox="0 0 108 128" version="1.1" xmlns="http://www.w3.org/2000/svg" xmlns:xlink="http://www.w3.org/1999/xlink">
    <!-- Generator: Sketch 50.2 (55047) - http://www.bohemiancoding.com/sketch -->
    <title>icon-service-condition-reports</title>
    <desc>Created with Sketch.</desc>
    <defs></defs>
    <g id="Page-2" stroke="none" stroke-width="1" fill="none" fill-rule="evenodd">
        <g id="icon-service-condition-reports">
            <polygon id="Shape" fill="#DD5E00" fill-rule="nonzero" points="7.2 127.6 107.6 127.6 107.6 7.4 40.4 7.4 7.2 26.8"></polygon>
            <polygon id="Shape" fill="#000000" fill-rule="nonzero" opacity="0.1" points="7.2 123.2 102.5 123.2 102.5 25.1 84.2 7.4 39.2 7.4 7.2 26.1"></polygon>
            <polygon id="Shape" fill="#F7DBCB" fill-rule="nonzero" points="96.7 118.3 0 118.3 0 0 68.2 0 96.7 25.9"></polygon>
            <polyline id="Shape" fill="#4A403D" fill-rule="nonzero" points="68.2 0 68.2 25.9 96.7 25.9"></polyline>
            <path d="M10.8,59.2 L86.6,59.2" id="Shape" stroke="#4A403D" stroke-width="0.5"></path>
            <path d="M10.8,67.2 L86.6,67.2" id="Shape" stroke="#4A403D" stroke-width="0.5"></path>
            <path d="M49.3,41 L87.1,41" id="Shape" stroke="#4A403D" stroke-width="0.5"></path>
            <path d="M49.3,49.1 L87.1,49.1" id="Shape" stroke="#4A403D" stroke-width="0.5"></path>
            <path d="M25.5,19.4 C17.6,19.4 11.1,26 11.1,34.2 C11.1,42.4 17.6,49 25.5,49 C33.5,49 39.9,42.4 39.9,34.2 L25.5,34.2 L25.5,19.4 Z" id="Shape" fill="#FF7700" fill-rule="nonzero"></path>
            <path d="M27.5,15.1 L27.5,32.1 L43.9,32.1 C43.9,22.7 36.6,15.1 27.5,15.1 Z" id="Shape" fill="#DD5E00" fill-rule="nonzero"></path>
            <path d="M49.3,33.1 L87.1,33.1" id="Shape" stroke="#4A403D" stroke-width="0.5"></path>
            <path d="M11.3,83.1 L46.1,83.1" id="Shape" stroke="#4A403D" stroke-width="0.5"></path>
            <path d="M11.3,91.2 L46.1,91.2" id="Shape" stroke="#4A403D" stroke-width="0.5"></path>
            <path d="M11.3,99.8 L46.1,99.8" id="Shape" stroke="#4A403D" stroke-width="0.5"></path>
            <path d="M11.3,75.2 L46.1,75.2" id="Shape" stroke="#4A403D" stroke-width="0.5"></path>
            <rect id="Rectangle-path" fill="#4A403D" fill-rule="nonzero" x="55" y="84.2" width="7.4" height="16.7"></rect>
            <rect id="Rectangle-path" fill="#DD5E00" fill-rule="nonzero" x="66.9" y="78.7" width="7.4" height="22.1"></rect>
            <rect id="Rectangle-path" fill="#FF7700" fill-rule="nonzero" x="78.4" y="74.3" width="7.4" height="26.6"></rect>
        </g>
    </g>
</svg>